digraph "BookStore.SqlQueries.MagazineList"
{
 // LATEX_PDF_SIZE
  edge [fontname="Helvetica",fontsize="10",labelfontname="Helvetica",labelfontsize="10"];
  node [fontname="Helvetica",fontsize="10",shape=record];
  rankdir="RL";
  Node1 [label="BookStore.SqlQueries.MagazineList",height=0.2,width=0.4,color="black", fillcolor="grey75", style="filled", fontcolor="black",tooltip="This function is for take magazine infos from sql"];
  Node1 -> Node2 [dir="back",color="midnightblue",fontsize="10",style="solid",fontname="Helvetica"];
  Node2 [label="BookStore.AdminMagazine.\lUploadMagazine",height=0.2,width=0.4,color="black", fillcolor="white", style="filled",URL="$class_book_store_1_1_admin_magazine.html#a6413fb9014254473e7a1a8c6b06746db",tooltip="Function to get magazines infos from database."];
  Node1 -> Node3 [dir="back",color="midnightblue",fontsize="10",style="solid",fontname="Helvetica"];
  Node3 [label="BookStore.Categories.Upload\lMagazinesInfos",height=0.2,width=0.4,color="black", fillcolor="white", style="filled",URL="$class_book_store_1_1_categories.html#a7c23320e8d3d1bb4c28db7d83930f1e9",tooltip="/ This function to list magazine ınfos."];
}
