digraph "BookStore.ShoppingCrt"
{
 // LATEX_PDF_SIZE
  edge [fontname="Helvetica",fontsize="10",labelfontname="Helvetica",labelfontsize="10"];
  node [fontname="Helvetica",fontsize="10",shape=record];
  Node1 [label="{BookStore.ShoppingCrt\n|+ p\l+ DeleteControl\l+ PaymentAmountControl\l|+ ShoppingCrt()\l# Dispose()\l}",height=0.2,width=0.4,color="black", fillcolor="grey75", style="filled", fontcolor="black",tooltip=" "];
  Node2 -> Node1 [dir="back",color="midnightblue",fontsize="10",style="solid",arrowtail="onormal",fontname="Helvetica"];
  Node2 [label="{UserControl\n||}",height=0.2,width=0.4,color="grey75", fillcolor="white", style="filled",tooltip=" "];
  Node3 -> Node1 [color="grey25",fontsize="10",style="solid",label=" +cart" ,arrowhead="odiamond",fontname="Helvetica"];
  Node3 [label="{BookStore.ShoppingCart\n|+ p\l+ CustomerId1\l+ PaymentAmount\l+ PaymentType\l+ ItemsToPurchase\l|+ ShoppingCart()\l+ printProducts()\l+ addProduct()\l+ removeProduct()\l+ placeOrder()\l+ cancelOrder()\l+ sendInvoidcebyEmail()\l+ sendInvoicebySMS()\l}",height=0.2,width=0.4,color="black", fillcolor="white", style="filled",URL="$class_book_store_1_1_shopping_cart.html",tooltip=" "];
}
