digraph "BookStore.AdminMagazine"
{
 // LATEX_PDF_SIZE
  edge [fontname="Helvetica",fontsize="10",labelfontname="Helvetica",labelfontsize="10"];
  node [fontname="Helvetica",fontsize="10",shape=record];
  Node1 [label="{BookStore.AdminMagazine\n|+ index_update\l+ selected_index\l|+ AdminMagazine()\l+ UploadMagazine()\l# Dispose()\l}",height=0.2,width=0.4,color="black", fillcolor="grey75", style="filled", fontcolor="black",tooltip=" "];
  Node2 -> Node1 [dir="back",color="midnightblue",fontsize="10",style="solid",arrowtail="onormal",fontname="Helvetica"];
  Node2 [label="{UserControl\n||}",height=0.2,width=0.4,color="grey75", fillcolor="white", style="filled",tooltip=" "];
}
