digraph "BookStore.SqlQueries.BookList"
{
 // LATEX_PDF_SIZE
  edge [fontname="Helvetica",fontsize="10",labelfontname="Helvetica",labelfontsize="10"];
  node [fontname="Helvetica",fontsize="10",shape=record];
  rankdir="RL";
  Node1 [label="BookStore.SqlQueries.BookList",height=0.2,width=0.4,color="black", fillcolor="grey75", style="filled", fontcolor="black",tooltip="This function is for take books from sql"];
  Node1 -> Node2 [dir="back",color="midnightblue",fontsize="10",style="solid",fontname="Helvetica"];
  Node2 [label="BookStore.AdminBook.UploadBook",height=0.2,width=0.4,color="black", fillcolor="white", style="filled",URL="$class_book_store_1_1_admin_book.html#ad8d321d56e8b87608a6d8e94f2c2f324",tooltip="Function to get book infos from database."];
  Node1 -> Node3 [dir="back",color="midnightblue",fontsize="10",style="solid",fontname="Helvetica"];
  Node3 [label="BookStore.Categories.Upload\lBooksInfos",height=0.2,width=0.4,color="black", fillcolor="white", style="filled",URL="$class_book_store_1_1_categories.html#a894203c8a77cb00962d09aae89f350b8",tooltip="This function to list book ınfos."];
}
