digraph "BookStore.SqlQueries.AddMagazine"
{
 // LATEX_PDF_SIZE
  edge [fontname="Helvetica",fontsize="10",labelfontname="Helvetica",labelfontsize="10"];
  node [fontname="Helvetica",fontsize="10",shape=record];
  rankdir="LR";
  Node1 [label="BookStore.SqlQueries.Add\lMagazine",height=0.2,width=0.4,color="black", fillcolor="grey75", style="filled", fontcolor="black",tooltip="This function is for adding magazines"];
  Node1 -> Node2 [color="midnightblue",fontsize="10",style="solid",fontname="Helvetica"];
  Node2 [label="BookStore.SqlConnections.\lClose",height=0.2,width=0.4,color="black", fillcolor="white", style="filled",URL="$class_book_store_1_1_sql_connections.html#ad19aaa7602183e60698e3e616d28a201",tooltip="Database close connection function."];
  Node1 -> Node3 [color="midnightblue",fontsize="10",style="solid",fontname="Helvetica"];
  Node3 [label="BookStore.SqlConnections.\lConnection",height=0.2,width=0.4,color="black", fillcolor="white", style="filled",URL="$class_book_store_1_1_sql_connections.html#a3ebfb97b43712a4b880ba7da01e56f37",tooltip="Database connection function."];
  Node1 -> Node4 [color="midnightblue",fontsize="10",style="solid",fontname="Helvetica"];
  Node4 [label="BookStore.SqlConnections.Open",height=0.2,width=0.4,color="black", fillcolor="white", style="filled",URL="$class_book_store_1_1_sql_connections.html#a1e15e321751b349132531d8331856653",tooltip="Database open connection function."];
}
