digraph "BookStore.MusicCDModel"
{
 // LATEX_PDF_SIZE
  edge [fontname="Helvetica",fontsize="10",labelfontname="Helvetica",labelfontsize="10"];
  node [fontname="Helvetica",fontsize="10",shape=record];
  Node1 [label="{BookStore.MusicCDModel\n|+ singer\l+ type\l|+ MusicCDModel()\l+ MusicCDModel()\l+ MusicCDModel()\l+ printProperties()\l}",height=0.2,width=0.4,color="black", fillcolor="grey75", style="filled", fontcolor="black",tooltip=" "];
  Node2 -> Node1 [dir="back",color="midnightblue",fontsize="10",style="solid",arrowtail="onormal",fontname="Helvetica"];
  Node2 [label="{Product\n|+ name\l+ id\l+ price\l+ picture\l|+ printProperties()\l}",height=0.2,width=0.4,color="black", fillcolor="white", style="filled",URL="$class_book_store_1_1_product.html",tooltip=" "];
}
