digraph "BookStore.ActiveUser.getInstance"
{
 // LATEX_PDF_SIZE
  edge [fontname="Helvetica",fontsize="10",labelfontname="Helvetica",labelfontsize="10"];
  node [fontname="Helvetica",fontsize="10",shape=record];
  rankdir="RL";
  Node1 [label="BookStore.ActiveUser.get\lInstance",height=0.2,width=0.4,color="black", fillcolor="grey75", style="filled", fontcolor="black",tooltip="Singleton design pattern used for only one active user."];
  Node1 -> Node2 [dir="back",color="midnightblue",fontsize="10",style="solid",fontname="Helvetica"];
  Node2 [label="BookStore.ButtonLog.Log",height=0.2,width=0.4,color="black", fillcolor="white", style="filled",URL="$class_book_store_1_1_button_log.html#a59bdb0afa3a4d72b7261a09ee400488e",tooltip="Function to save ınfos when user clicked to button."];
  Node1 -> Node3 [dir="back",color="midnightblue",fontsize="10",style="solid",fontname="Helvetica"];
  Node3 [label="BookStore.SqlQueries.OrderList",height=0.2,width=0.4,color="black", fillcolor="white", style="filled",URL="$class_book_store_1_1_sql_queries.html#ad6595bca1a7060298dd72a5f9adcb918",tooltip="This function is for pulling the order list from the database."];
  Node1 -> Node4 [dir="back",color="midnightblue",fontsize="10",style="solid",fontname="Helvetica"];
  Node4 [label="BookStore.SqlQueries.Save\lOrder",height=0.2,width=0.4,color="black", fillcolor="white", style="filled",URL="$class_book_store_1_1_sql_queries.html#a548da46552628d70ccd2d11e17bf9eb1",tooltip="This function is for adding orders to the database."];
  Node1 -> Node5 [dir="back",color="midnightblue",fontsize="10",style="solid",fontname="Helvetica"];
  Node5 [label="BookStore.ShoppingCart.send\lInvoidcebyEmail",height=0.2,width=0.4,color="black", fillcolor="white", style="filled",URL="$class_book_store_1_1_shopping_cart.html#a2d54c834490c6fb752a7d213b2cf31a3",tooltip="This function sends e-invoice to customer."];
}
