digraph "Graphical Class Hierarchy"
{
 // LATEX_PDF_SIZE
  edge [fontname="Helvetica",fontsize="10",labelfontname="Helvetica",labelfontsize="10"];
  node [fontname="Helvetica",fontsize="10",shape=record];
  rankdir="LR";
  Node18 [label="UserControl",height=0.2,width=0.4,color="grey75", fillcolor="white", style="filled",tooltip=" "];
  Node18 -> Node0 [dir="back",color="midnightblue",fontsize="10",style="solid",fontname="Helvetica"];
  Node0 [label="BookStore.Account",height=0.2,width=0.4,color="black", fillcolor="white", style="filled",URL="$class_book_store_1_1_account.html",tooltip=" "];
  Node18 -> Node20 [dir="back",color="midnightblue",fontsize="10",style="solid",fontname="Helvetica"];
  Node20 [label="BookStore.AdminBook",height=0.2,width=0.4,color="black", fillcolor="white", style="filled",URL="$class_book_store_1_1_admin_book.html",tooltip=" "];
  Node18 -> Node21 [dir="back",color="midnightblue",fontsize="10",style="solid",fontname="Helvetica"];
  Node21 [label="BookStore.AdminControl",height=0.2,width=0.4,color="black", fillcolor="white", style="filled",URL="$class_book_store_1_1_admin_control.html",tooltip=" "];
  Node18 -> Node22 [dir="back",color="midnightblue",fontsize="10",style="solid",fontname="Helvetica"];
  Node22 [label="BookStore.AdminMagazine",height=0.2,width=0.4,color="black", fillcolor="white", style="filled",URL="$class_book_store_1_1_admin_magazine.html",tooltip=" "];
  Node18 -> Node23 [dir="back",color="midnightblue",fontsize="10",style="solid",fontname="Helvetica"];
  Node23 [label="BookStore.AdminMusicCD",height=0.2,width=0.4,color="black", fillcolor="white", style="filled",URL="$class_book_store_1_1_admin_music_c_d.html",tooltip=" "];
  Node18 -> Node24 [dir="back",color="midnightblue",fontsize="10",style="solid",fontname="Helvetica"];
  Node24 [label="BookStore.AdminUser",height=0.2,width=0.4,color="black", fillcolor="white", style="filled",URL="$class_book_store_1_1_admin_user.html",tooltip=" "];
  Node18 -> Node25 [dir="back",color="midnightblue",fontsize="10",style="solid",fontname="Helvetica"];
  Node25 [label="BookStore.Advice",height=0.2,width=0.4,color="black", fillcolor="white", style="filled",URL="$class_book_store_1_1_advice.html",tooltip=" "];
  Node18 -> Node26 [dir="back",color="midnightblue",fontsize="10",style="solid",fontname="Helvetica"];
  Node26 [label="BookStore.Book",height=0.2,width=0.4,color="black", fillcolor="white", style="filled",URL="$class_book_store_1_1_book.html",tooltip=" "];
  Node18 -> Node27 [dir="back",color="midnightblue",fontsize="10",style="solid",fontname="Helvetica"];
  Node27 [label="BookStore.Books",height=0.2,width=0.4,color="black", fillcolor="white", style="filled",URL="$class_book_store_1_1_books.html",tooltip=" "];
  Node18 -> Node28 [dir="back",color="midnightblue",fontsize="10",style="solid",fontname="Helvetica"];
  Node28 [label="BookStore.CartConfirm",height=0.2,width=0.4,color="black", fillcolor="white", style="filled",URL="$class_book_store_1_1_cart_confirm.html",tooltip=" "];
  Node18 -> Node29 [dir="back",color="midnightblue",fontsize="10",style="solid",fontname="Helvetica"];
  Node29 [label="BookStore.Categories",height=0.2,width=0.4,color="black", fillcolor="white", style="filled",URL="$class_book_store_1_1_categories.html",tooltip=" "];
  Node18 -> Node30 [dir="back",color="midnightblue",fontsize="10",style="solid",fontname="Helvetica"];
  Node30 [label="BookStore.Home",height=0.2,width=0.4,color="black", fillcolor="white", style="filled",URL="$class_book_store_1_1_home.html",tooltip=" "];
  Node18 -> Node31 [dir="back",color="midnightblue",fontsize="10",style="solid",fontname="Helvetica"];
  Node31 [label="BookStore.Magazine",height=0.2,width=0.4,color="black", fillcolor="white", style="filled",URL="$class_book_store_1_1_magazine.html",tooltip=" "];
  Node18 -> Node32 [dir="back",color="midnightblue",fontsize="10",style="solid",fontname="Helvetica"];
  Node32 [label="BookStore.Magazines",height=0.2,width=0.4,color="black", fillcolor="white", style="filled",URL="$class_book_store_1_1_magazines.html",tooltip=" "];
  Node18 -> Node33 [dir="back",color="midnightblue",fontsize="10",style="solid",fontname="Helvetica"];
  Node33 [label="BookStore.MusicCd",height=0.2,width=0.4,color="black", fillcolor="white", style="filled",URL="$class_book_store_1_1_music_cd.html",tooltip=" "];
  Node18 -> Node34 [dir="back",color="midnightblue",fontsize="10",style="solid",fontname="Helvetica"];
  Node34 [label="BookStore.MusicCds",height=0.2,width=0.4,color="black", fillcolor="white", style="filled",URL="$class_book_store_1_1_music_cds.html",tooltip=" "];
  Node18 -> Node35 [dir="back",color="midnightblue",fontsize="10",style="solid",fontname="Helvetica"];
  Node35 [label="BookStore.Orders",height=0.2,width=0.4,color="black", fillcolor="white", style="filled",URL="$class_book_store_1_1_orders.html",tooltip=" "];
  Node18 -> Node36 [dir="back",color="midnightblue",fontsize="10",style="solid",fontname="Helvetica"];
  Node36 [label="BookStore.ShoppingCrt",height=0.2,width=0.4,color="black", fillcolor="white", style="filled",URL="$class_book_store_1_1_shopping_crt.html",tooltip=" "];
  Node18 -> Node37 [dir="back",color="midnightblue",fontsize="10",style="solid",fontname="Helvetica"];
  Node37 [label="BookStore.ShoppingCrts",height=0.2,width=0.4,color="black", fillcolor="white", style="filled",URL="$class_book_store_1_1_shopping_crts.html",tooltip=" "];
}
